<svg xmlns="http://www.w3.org/2000/svg" xmlns:xlink="http://www.w3.org/1999/xlink" width="20" height="20" viewBox="0 0 20 20">
  <defs>
    <linearGradient id="linear-gradient" x1="0.232" y1="0.038" x2="0.818" y2="1.249" gradientUnits="objectBoundingBox">
      <stop offset="0" stop-color="#addfff"/>
      <stop offset="1" stop-color="#1178bf"/>
    </linearGradient>
    <linearGradient id="linear-gradient-2" x1="0.241" y1="-0.048" x2="0.786" y2="1.366" gradientUnits="objectBoundingBox">
      <stop offset="0" stop-color="#5ebaf4"/>
      <stop offset="1" stop-color="#1178bf"/>
    </linearGradient>
  </defs>
  <g id="addimage_icn" transform="translate(-231 -220.055)">
    <g id="Group_19943" data-name="Group 19943" transform="translate(231 220)">
      <g id="Group_19741" data-name="Group 19741">
        <g id="Group_14679" data-name="Group 14679" transform="translate(0 0)">
          <rect id="Inner_circle_red_2" data-name="Inner circle_red_2" width="20" height="20" rx="10" transform="translate(0 0.055)" fill="url(#linear-gradient)"/>
          <rect id="Inner_circle_red_1" data-name="Inner circle_red_1" width="17.972" height="17.972" rx="8.986" transform="translate(1.121 1.12)" fill="url(#linear-gradient-2)"/>
        </g>
      </g>
    </g>
    <g id="vuesax_linear_gallery-add" data-name="vuesax/linear/gallery-add" transform="translate(235.358 224.759)">
      <g id="gallery-add" transform="translate(0 0)">
        <path id="Vector" d="M1.89.945A.945.945,0,1,1,.945,0,.945.945,0,0,1,1.89.945Z" transform="translate(3.307 2.835)" fill="none" stroke="#dff1fd" stroke-linecap="round" stroke-linejoin="round" stroke-width="1.2"/>
        <path id="Vector-2" data-name="Vector" d="M5.2,0H3.307C.945,0,0,.945,0,3.307V6.142C0,8.5.945,9.449,3.307,9.449H6.142c2.362,0,3.307-.945,3.307-3.307V3.78" transform="translate(0.945 0.945)" fill="none" stroke="#dff1fd" stroke-linecap="round" stroke-linejoin="round" stroke-width="1.2"/>
        <path id="Vector-3" data-name="Vector" d="M0,0H2.6" transform="translate(7.441 2.362)" fill="none" stroke="#dff1fd" stroke-linecap="round" stroke-width="1.2"/>
        <path id="Vector-4" data-name="Vector" d="M0,2.6V0" transform="translate(8.74 1.063)" fill="none" stroke="#dff1fd" stroke-linecap="round" stroke-width="1.2"/>
        <path id="Vector-5" data-name="Vector" d="M0,3.285,2.329,1.721a1.064,1.064,0,0,1,1.247.066l.156.137a1.053,1.053,0,0,0,1.332,0L7.03.237a1.053,1.053,0,0,1,1.332,0L9.133.9" transform="translate(1.261 5.668)" fill="none" stroke="#dff1fd" stroke-linecap="round" stroke-linejoin="round" stroke-width="1.2"/>
        <path id="Vector-6" data-name="Vector" d="M0,0H11.339V11.339H0Z" fill="none" opacity="0"/>
      </g>
    </g>
  </g>
</svg>
