<svg xmlns="http://www.w3.org/2000/svg" width="13.586" height="13.585" viewBox="0 0 13.586 13.585">
  <g id="addshorts_icn" transform="translate(0)">
    <path id="Union_2" data-name="Union 2" d="M0,13.585V12.226H2.718a6.793,6.793,0,1,1,4.075,1.358ZM1.359,6.793A5.434,5.434,0,1,0,6.793,1.358,5.433,5.433,0,0,0,1.359,6.793ZM5.912,9.279a.9.9,0,1,1,.9.9A.9.9,0,0,1,5.912,9.279ZM8.4,6.793a.9.9,0,1,1,.9.9A.9.9,0,0,1,8.4,6.793Zm-4.973,0a.9.9,0,1,1,.9.9A.9.9,0,0,1,3.426,6.793ZM5.912,4.306a.9.9,0,1,1,.9.9A.9.9,0,0,1,5.912,4.306Z" transform="translate(0)" fill="#fff"/>
  </g>
</svg>
