<svg xmlns="http://www.w3.org/2000/svg" xmlns:xlink="http://www.w3.org/1999/xlink" width="14.834" height="17.553" viewBox="0 0 14.834 17.553">
  <defs>
    <linearGradient id="linear-gradient" x1="0.096" y1="-0.03" x2="0.906" y2="1.036" gradientUnits="objectBoundingBox">
      <stop offset="0" stop-color="#bec3c6"/>
      <stop offset="1" stop-color="#808486"/>
    </linearGradient>
  </defs>
  <g id="bell_icn" transform="translate(-28.355 -27.409)">
    <path id="Union_44" data-name="Union 44" d="M11696.2,1129.773a2.516,2.516,0,0,1-.925-1.749,19.3,19.3,0,0,1-2.647-.628,2.262,2.262,0,0,1-1.49-1.3,2.027,2.027,0,0,1,.235-1.88l.973-1.51a3.084,3.084,0,0,0,.391-1.322V1119.1a5.37,5.37,0,0,1,3.682-4.988,2.4,2.4,0,0,1,4.051,0,5.371,5.371,0,0,1,3.681,4.987v2.283a3.173,3.173,0,0,0,.385,1.328l.97,1.5a2.034,2.034,0,0,1,.186,1.877,2.239,2.239,0,0,1-1.442,1.3,19.344,19.344,0,0,1-2.64.626,2.986,2.986,0,0,1-3.166,2.532A3.527,3.527,0,0,1,11696.2,1129.773Zm.9-.755a2.1,2.1,0,0,0,1.343.47,1.852,1.852,0,0,0,1.87-1.3q-.932.089-1.873.089c-.623,0-1.245-.03-1.862-.088A1.543,1.543,0,0,0,11697.095,1129.018Zm-3.1-9.918v2.283a4.09,4.09,0,0,1-.57,1.93l-.973,1.513a.936.936,0,0,0-.132.861,1.066,1.066,0,0,0,.7.588,18.222,18.222,0,0,0,10.816,0,1.012,1.012,0,0,0,.655-.591.933.933,0,0,0-.085-.858l-.976-1.513a4.2,4.2,0,0,1-.561-1.927V1119.1a4.2,4.2,0,0,0-3.114-3.959,4.349,4.349,0,0,0-.646-.121,5.432,5.432,0,0,0-2.021.126A4.2,4.2,0,0,0,11694,1119.1Z" transform="translate(-11662.645 -1085.592)" fill="url(#linear-gradient)"/>
  </g>
</svg>
