<svg xmlns="http://www.w3.org/2000/svg" xmlns:xlink="http://www.w3.org/1999/xlink" width="23.979" height="21.212" viewBox="0 0 23.979 21.212">
  <defs>
    <linearGradient id="linear-gradient" x1="0.232" y1="0.038" x2="0.818" y2="1.249" gradientUnits="objectBoundingBox">
      <stop offset="0" stop-color="#addfff"/>
      <stop offset="1" stop-color="#1178bf"/>
    </linearGradient>
    <linearGradient id="linear-gradient-2" x1="0.241" y1="-0.048" x2="0.786" y2="1.366" gradientUnits="objectBoundingBox">
      <stop offset="0" stop-color="#5ebaf4"/>
      <stop offset="1" stop-color="#1178bf"/>
    </linearGradient>
    <filter id="Path_11038" x="0" y="0" width="23.979" height="21.212" filterUnits="userSpaceOnUse">
      <feOffset input="SourceAlpha"/>
      <feGaussianBlur stdDeviation="2.5" result="blur"/>
      <feFlood flood-opacity="0.345"/>
      <feComposite operator="in" in2="blur"/>
      <feComposite in="SourceGraphic"/>
    </filter>
  </defs>
  <g id="circle_tick_icn" transform="translate(-135.628 -183.151)">
    <g id="Group_19962" data-name="Group 19962" transform="translate(140 186)">
      <g id="Group_19943" data-name="Group 19943">
        <g id="Group_19741" data-name="Group 19741">
          <g id="Group_14679" data-name="Group 14679" transform="translate(0 0)">
            <rect id="Inner_circle_red_2" data-name="Inner circle_red_2" width="15" height="15" rx="7.5" fill="url(#linear-gradient)"/>
            <rect id="Inner_circle_red_1" data-name="Inner circle_red_1" width="13.686" height="13.686" rx="6.843" transform="translate(0.853 0.811)" fill="url(#linear-gradient-2)"/>
          </g>
        </g>
      </g>
    </g>
    <g transform="matrix(1, 0, 0, 1, 135.63, 183.15)" filter="url(#Path_11038)">
      <path id="Path_11038-2" data-name="Path 11038" d="M9267.526,3865.057l2.379,2.439,4.479-4.4" transform="translate(-9258.97 -3854.53)" fill="none" stroke="#fff" stroke-linecap="round" stroke-linejoin="round" stroke-width="1.5"/>
    </g>
  </g>
</svg>
