<svg id="circlelock_icn" xmlns="http://www.w3.org/2000/svg" width="35.799" height="35.799" viewBox="0 0 35.799 35.799">
  <path id="Vector" d="M0,5.966V4.475C0,2,.746,0,4.475,0S8.95,2,8.95,4.475V5.966" transform="translate(13.425 10.441)" fill="none" stroke="#a5a9ac" stroke-linecap="round" stroke-linejoin="round" stroke-width="1.5"/>
  <path id="Vector-2" data-name="Vector" d="M1.79.895A.895.895,0,1,1,.895,0,.895.895,0,0,1,1.79.895Z" transform="translate(17.004 19.988)" fill="none" stroke="#a5a9ac" stroke-linecap="round" stroke-linejoin="round" stroke-width="1.5"/>
  <path id="Vector-3" data-name="Vector" d="M11.187,8.95H3.729C.746,8.95,0,8.2,0,5.221V3.729C0,.746.746,0,3.729,0h7.458c2.983,0,3.729.746,3.729,3.729V5.221C14.916,8.2,14.17,8.95,11.187,8.95Z" transform="translate(10.441 16.408)" fill="none" stroke="#a5a9ac" stroke-linecap="round" stroke-linejoin="round" stroke-width="1.5"/>
  <path id="Vector-4" data-name="Vector" d="M29.832,14.916A14.916,14.916,0,1,1,14.916,0,14.916,14.916,0,0,1,29.832,14.916Z" transform="translate(2.983 2.983)" fill="none" stroke="#a5a9ac" stroke-linecap="round" stroke-linejoin="round" stroke-width="1.5"/>
  <path id="Vector-5" data-name="Vector" d="M0,0H35.8V35.8H0Z" fill="none" opacity="0"/>
</svg>
