<svg xmlns="http://www.w3.org/2000/svg" width="12.965" height="12.965" viewBox="0 0 12.965 12.965">
  <g id="circle_tick_outline_icn" transform="translate(17590 46)">
    <g id="Circle_tick_outline_white" data-name="Circle tick outline white" transform="translate(-17590 -46)">
      <g id="tick" transform="translate(0)">
        <g id="Ellipse_3270" data-name="Ellipse 3270" fill="none" stroke="#009cff" stroke-width="1">
          <circle cx="6.482" cy="6.482" r="6.482" stroke="none"/>
          <circle cx="6.482" cy="6.482" r="5.982" fill="none"/>
        </g>
        <g id="Group_19710" data-name="Group 19710" transform="translate(9.416 4.505) rotate(90)">
          <g id="Group_12646" data-name="Group 12646">
            <line id="Line_505" data-name="Line 505" x2="3.962" y2="3.802" fill="none" stroke="#009cff" stroke-linecap="round" stroke-width="1"/>
            <line id="Line_506" data-name="Line 506" y1="1.842" x2="1.842" transform="translate(2.12 3.802)" fill="none" stroke="#009cff" stroke-linecap="round" stroke-width="1"/>
          </g>
        </g>
      </g>
    </g>
  </g>
</svg>
