<svg xmlns="http://www.w3.org/2000/svg" width="26.693" height="22.256" viewBox="0 0 26.693 22.256">
  <g id="comment_icn" transform="translate(-320 -564.554)">
    <g id="Group_3592" data-name="Group 3592" transform="translate(320 564.554)">
      <g id="message" transform="translate(0 0)">
        <path id="Path_3669" data-name="Path 3669" d="M21.219.5H5.474A5.48,5.48,0,0,0,0,5.974v8.455a5.386,5.386,0,0,0,3.873,5.178l2.715,2.92a.782.782,0,0,0,1.106,0l2.354-2.7H21.219a5.48,5.48,0,0,0,5.474-5.474V5.974A5.48,5.48,0,0,0,21.219.5Zm3.91,13.851a3.915,3.915,0,0,1-3.91,3.91H9.724a.782.782,0,0,0-.553.229l-2.03,2.377L4.832,18.354a.781.781,0,0,0-.364-.206,3.824,3.824,0,0,1-2.9-3.719V5.974a3.915,3.915,0,0,1,3.91-3.91H21.219a3.915,3.915,0,0,1,3.91,3.91Zm0,0" transform="translate(0 -0.5)" fill="#fff"/>
        <path id="Path_3670" data-name="Path 3670" d="M159.72,144.328H146.54a.782.782,0,1,0,0,1.564H159.72a.782.782,0,0,0,0-1.564Zm0,0" transform="translate(-140.325 -138.046)" fill="#fff"/>
        <path id="Path_3671" data-name="Path 3671" d="M158.9,197.352H146.54a.782.782,0,1,0,0,1.564H158.9a.782.782,0,0,0,0-1.564Zm0,0" transform="translate(-140.325 -187.089)" fill="#fff"/>
        <path id="Path_3673" data-name="Path 3673" d="M154.038,197.352h-7.5a.782.782,0,1,0,0,1.564h7.5a.782.782,0,0,0,0-1.564Zm0,0" transform="translate(-140.325 -183.44)" fill="#fff"/>
      </g>
    </g>
  </g>
</svg>
