<svg xmlns="http://www.w3.org/2000/svg" width="14.828" height="8.414" viewBox="0 0 14.828 8.414">
  <g id="down_icn" transform="translate(-205.586 -113.586)">
    <path id="_icn" d="M6,9l6,6,6-6" transform="translate(201 106)" fill="none" stroke="#e3dce1" stroke-linecap="round" stroke-linejoin="round" stroke-width="2"/>
  </g>
</svg>
