<svg xmlns="http://www.w3.org/2000/svg" width="15.653" height="15.653" viewBox="0 0 15.653 15.653">
  <g id="eyeopen_icn" transform="translate(-172 -188)">
    <g id="eye-slash" transform="translate(172 188)">
      <path id="Vector" d="M10.178,1.33A6.282,6.282,0,0,0,6.382,0,7.185,7.185,0,0,0,.44,3.7a3.473,3.473,0,0,0,0,3.385A9.344,9.344,0,0,0,2.208,9.157" transform="translate(1.445 2.433)" fill="none" stroke="#adb1b5" stroke-linecap="round" stroke-linejoin="round" stroke-width="1.4"/>
      <path id="Vector-2" data-name="Vector" d="M0,7.566a6.01,6.01,0,0,0,2.335.483,7.185,7.185,0,0,0,5.942-3.7,3.473,3.473,0,0,0,0-3.385A10.58,10.58,0,0,0,7.585,0" transform="translate(5.492 5.172)" fill="none" stroke="#adb1b5" stroke-linecap="round" stroke-linejoin="round" stroke-width="1.4"/>
      <path id="Vector-3" data-name="Vector" d="M0,0H15.653V15.653H0Z" transform="translate(15.653 15.653) rotate(180)" fill="none" opacity="0"/>
      <g id="Ellipse_4479" data-name="Ellipse 4479" transform="translate(4.653 4.653)" fill="none" stroke="#adb1b5" stroke-width="1.4">
        <circle cx="3" cy="3" r="3" stroke="none"/>
        <circle cx="3" cy="3" r="2.3" fill="none"/>
      </g>
    </g>
  </g>
</svg>
