<svg xmlns="http://www.w3.org/2000/svg" xmlns:xlink="http://www.w3.org/1999/xlink" width="37.917" height="36.334" viewBox="0 0 37.917 36.334">
  <defs>
    <linearGradient id="linear-gradient" x1="0.232" y1="0.038" x2="0.818" y2="1.249" gradientUnits="objectBoundingBox">
      <stop offset="0" stop-color="#addfff"/>
      <stop offset="1" stop-color="#1178bf"/>
    </linearGradient>
    <linearGradient id="linear-gradient-2" x1="0.241" y1="-0.048" x2="0.786" y2="1.366" gradientUnits="objectBoundingBox">
      <stop offset="0" stop-color="#5ebaf4"/>
      <stop offset="1" stop-color="#1178bf"/>
    </linearGradient>
    <linearGradient id="linear-gradient-3" x1="0.362" y1="0.103" x2="0.65" y2="1.074" gradientUnits="objectBoundingBox">
      <stop offset="0" stop-color="#cddffd"/>
      <stop offset="1" stop-color="#fff"/>
    </linearGradient>
    <filter id="Icon_awesome-crown" x="0" y="0" width="37.917" height="36.334" filterUnits="userSpaceOnUse">
      <feOffset dy="2" input="SourceAlpha"/>
      <feGaussianBlur stdDeviation="5" result="blur"/>
      <feFlood flood-opacity="0.255"/>
      <feComposite operator="in" in2="blur"/>
      <feComposite in="SourceGraphic"/>
    </filter>
  </defs>
  <g id="featured_icn" transform="translate(-179.541 -158.333)">
    <g id="Group_19741" data-name="Group 19741" transform="translate(-134 142)">
      <g id="Group_14679" data-name="Group 14679" transform="translate(173.02 -338.981)">
        <rect id="Inner_circle_red_2" data-name="Inner circle_red_2" width="15" height="15" rx="7.5" transform="translate(151.98 363.981)" fill="url(#linear-gradient)"/>
        <rect id="Inner_circle_red_1" data-name="Inner circle_red_1" width="13.388" height="13.388" rx="6.694" transform="translate(152.815 364.815)" fill="url(#linear-gradient-2)"/>
      </g>
    </g>
    <g transform="matrix(1, 0, 0, 1, 179.54, 158.33)" filter="url(#Icon_awesome-crown)">
      <path id="Icon_awesome-crown-2" data-name="Icon awesome-crown" d="M6.532,5.542H1.386a.2.2,0,0,0-.2.2v.4a.2.2,0,0,0,.2.2H6.532a.2.2,0,0,0,.2-.2v-.4A.2.2,0,0,0,6.532,5.542Zm.792-3.959a.594.594,0,0,0-.594.594.582.582,0,0,0,.054.245l-.9.537a.4.4,0,0,1-.547-.144L4.334,1.052a.594.594,0,1,0-.75,0L2.576,2.816a.4.4,0,0,1-.547.144l-.894-.537a.594.594,0,1,0-.541.349.606.606,0,0,0,.1-.01l.894,2.385h4.75l.894-2.385a.606.606,0,0,0,.1.01.594.594,0,0,0,0-1.188Z" transform="translate(15 13)" fill="url(#linear-gradient-3)"/>
    </g>
  </g>
</svg>
