<svg xmlns="http://www.w3.org/2000/svg" xmlns:xlink="http://www.w3.org/1999/xlink" width="36" height="42.499" viewBox="0 0 36 42.499">
  <defs>
    <linearGradient id="linear-gradient" x1="0.5" y1="-0.04" x2="0.526" y2="1.23" gradientUnits="objectBoundingBox">
      <stop offset="0" stop-color="#00c6ff"/>
      <stop offset="1" stop-color="#0072ff"/>
    </linearGradient>
  </defs>
  <g id="gender_3_blue" transform="translate(-206 -343.001)">
    <path id="_icn" d="M-7162.018-3594.5a.953.953,0,0,1-.931-.973l.092-4.741h-3.1a.951.951,0,0,1-.948-.955.953.953,0,0,1,.948-.955h3.138l.084-4.379a11.428,11.428,0,0,1-10.16-11.4,11.466,11.466,0,0,1,3.115-7.881l-3.285-3.011-1.528,1.539a.941.941,0,0,1-.669.281.938.938,0,0,1-.669-.281.958.958,0,0,1,0-1.351l1.461-1.475-3.635-3.33v5.462a.95.95,0,0,1-.947.955.95.95,0,0,1-.947-.955v-8.1a.95.95,0,0,1,.947-.955h8.387a.952.952,0,0,1,.948.955.953.953,0,0,1-.948.955h-6.458l4,3.66,1.933-1.95a.945.945,0,0,1,1.34,0,.963.963,0,0,1,0,1.353l-1.869,1.883,3.365,3.084a11.26,11.26,0,0,1,6.835-2.3,11.247,11.247,0,0,1,6.284,1.91.969.969,0,0,1,.187-.232l8.163-7.407h-6.443a.952.952,0,0,1-.946-.955.95.95,0,0,1,.946-.955h8.389a.949.949,0,0,1,.945.955v.432q0,.045,0,.089v7.577a.95.95,0,0,1-.945.955.951.951,0,0,1-.947-.955v-5.478l-7.877,7.145a11.472,11.472,0,0,1,3.612,8.379,11.42,11.42,0,0,1-10.685,11.439l-.083,4.335h3.663a.952.952,0,0,1,.947.955.95.95,0,0,1-.947.955h-3.7l-.091,4.777a.951.951,0,0,1-.946.937Zm-8.982-23.4a9.523,9.523,0,0,0,9.475,9.55,9.522,9.522,0,0,0,9.473-9.55,9.524,9.524,0,0,0-9.473-9.551A9.524,9.524,0,0,0-7171-3617.9Z" transform="translate(7386 3980)" fill="url(#linear-gradient)"/>
  </g>
</svg>
