<svg xmlns="http://www.w3.org/2000/svg" xmlns:xlink="http://www.w3.org/1999/xlink" width="15.304" height="17.963" viewBox="0 0 15.304 17.963">
  <defs>
    <linearGradient id="linear-gradient" x1="0.357" x2="0.739" y2="1.296" gradientUnits="objectBoundingBox">
      <stop offset="0" stop-color="#878b8e"/>
      <stop offset="1" stop-color="#444647"/>
    </linearGradient>
  </defs>
  <path id="profile_icn" d="M-7905.2-7661.537v-1.772a2.551,2.551,0,0,0-2.548-2.548h-6.208a2.53,2.53,0,0,0-1.8.746,2.53,2.53,0,0,0-.745,1.8v1.772a1,1,0,0,1-1,1,1,1,0,0,1-1-1v-1.772a4.515,4.515,0,0,1,1.332-3.215,4.517,4.517,0,0,1,3.215-1.333h6.208a4.555,4.555,0,0,1,4.549,4.549v1.772a1,1,0,0,1-1,1A1,1,0,0,1-7905.2-7661.537Zm-10.2-12.417a4.553,4.553,0,0,1,4.547-4.547,4.554,4.554,0,0,1,4.549,4.547,4.554,4.554,0,0,1-4.549,4.549A4.553,4.553,0,0,1-7915.4-7673.954Zm2,0a2.549,2.549,0,0,0,2.546,2.548,2.55,2.55,0,0,0,2.547-2.548,2.55,2.55,0,0,0-2.547-2.545A2.548,2.548,0,0,0-7913.4-7673.954Z" transform="translate(7918.5 7678.5)" fill="url(#linear-gradient)"/>
</svg>
