<svg xmlns="http://www.w3.org/2000/svg" xmlns:xlink="http://www.w3.org/1999/xlink" width="16.391" height="16.39" viewBox="0 0 16.391 16.39">
  <defs>
    <linearGradient id="linear-gradient" x1="0.357" x2="0.739" y2="1.296" gradientUnits="objectBoundingBox">
      <stop offset="0" stop-color="#878b8e"/>
      <stop offset="1" stop-color="#444647"/>
    </linearGradient>
  </defs>
  <path id="reels_icn" d="M0,16.39V14.751H3.279A8.2,8.2,0,1,1,8.2,16.39ZM1.64,8.2A6.556,6.556,0,1,0,8.2,1.639,6.555,6.555,0,0,0,1.64,8.2Zm5.493,3a1.09,1.09,0,1,1,1.09,1.091A1.09,1.09,0,0,1,7.133,11.2Zm3-3a1.09,1.09,0,1,1,1.09,1.09A1.09,1.09,0,0,1,10.132,8.2Zm-6,0a1.09,1.09,0,1,1,1.09,1.09A1.09,1.09,0,0,1,4.133,8.2Zm3-3a1.09,1.09,0,1,1,1.09,1.09A1.09,1.09,0,0,1,7.133,5.2Z" transform="translate(0)" fill="url(#linear-gradient)"/>
</svg>
