<svg xmlns="http://www.w3.org/2000/svg" width="24" height="20.808" viewBox="0 0 24 20.808">
  <g id="share_icn" transform="translate(-278 -573.596)">
    <g id="Layer_51" data-name="Layer 51" transform="translate(277.201 571.196)">
      <path id="Path_10926" data-name="Path 10926" d="M1.6,23.2a.9.9,0,0,1-.248,0A.8.8,0,0,1,.8,22.4v-.8A15.2,15.2,0,0,1,13.6,6.592V3.2a.8.8,0,0,1,1.28-.64l9.6,7.2a.8.8,0,0,1,0,1.28l-9.6,7.2a.8.8,0,0,1-1.28-.64v-3a14.927,14.927,0,0,0-9.656,5.936l-1.7,2.336A.8.8,0,0,1,1.6,23.2ZM15.2,4.8V7.3a.8.8,0,0,1-.712.8,13.6,13.6,0,0,0-12,11.68l.128-.168a16.543,16.543,0,0,1,11.7-6.72.809.809,0,0,1,.88.8V16l7.464-5.6Z" fill="#fff"/>
    </g>
  </g>
</svg>
