<svg xmlns="http://www.w3.org/2000/svg" width="20.147" height="20.147" viewBox="0 0 20.147 20.147">
  <g id="twopeople_icn" transform="translate(-172 -252)">
    <g id="profile-2user" transform="translate(172 252)">
      <path id="Vector" d="M3.862,7.446a1.526,1.526,0,0,0-.277,0,3.731,3.731,0,1,1,.277,0Z" transform="translate(3.828 1.679)" fill="none" stroke="#adadaf" stroke-linecap="round" stroke-linejoin="round" stroke-width="1.2"/>
      <path id="Vector-2" data-name="Vector" d="M.109,0A2.936,2.936,0,0,1,3.047,2.938,2.942,2.942,0,0,1,.218,5.876a.948.948,0,0,0-.218,0" transform="translate(13.667 3.358)" fill="none" stroke="#adadaf" stroke-linecap="round" stroke-linejoin="round" stroke-width="1.2"/>
      <path id="Vector-3" data-name="Vector" d="M1.524,1.152c-2.032,1.36-2.032,3.576,0,4.928a8.2,8.2,0,0,0,8.4,0c2.032-1.36,2.032-3.576,0-4.928A8.237,8.237,0,0,0,1.524,1.152Z" transform="translate(1.969 11.071)" fill="none" stroke="#adadaf" stroke-linecap="round" stroke-linejoin="round" stroke-width="1.2"/>
      <path id="Vector-4" data-name="Vector" d="M0,5.037a4.061,4.061,0,0,0,1.645-.73,2.126,2.126,0,0,0,0-3.585A4.175,4.175,0,0,0,.025,0" transform="translate(15.396 11.753)" fill="none" stroke="#adadaf" stroke-linecap="round" stroke-linejoin="round" stroke-width="1.2"/>
      <path id="Vector-5" data-name="Vector" d="M0,0H20.147V20.147H0Z" transform="translate(20.147 20.147) rotate(180)" fill="none" opacity="0"/>
    </g>
  </g>
</svg>
