{
  "project_info": {
    "project_number": "594376611533",
    "project_id": "spolaapp-c2f7e",
    "storage_bucket": "spolaapp-c2f7e.appspot.com"
  },
  "client": [
    {
      "client_info": {
        "mobilesdk_app_id": "1:594376611533:android:87fe03e56b05a2c8d13b84",
        "android_client_info": {
          "package_name": "com.felixpro"
        }
      },
      "oauth_client": [
        {
          "client_id": "594376611533-f4eodcts3db864bg0e6aummppt8mkkgo.apps.googleusercontent.com",
          "client_type": 3
        }
      ],
      "api_key": [
        {
          "current_key": "AIzaSyDyrcOmAA_AyoKtsnh4elT2z2DJgPlNApU"
        }
      ],
      "services": {
        "appinvite_service": {
          "other_platform_oauth_client": [
            {
              "client_id": "594376611533-f4eodcts3db864bg0e6aummppt8mkkgo.apps.googleusercontent.com",
              "client_type": 3
            }
          ]
        }
      }
    }
  ],
  "configuration_version": "1"
}